{
  "content": [
    {
      "version": 0,
      "modifiedDate": null,
      "createdDate": "2020-04-06",
      "id": 10,
      "firstName": "Christian",
      "lastName": "Pearson",
      "salary": 3000.11,
      "contractType": {
        "id": 2,
        "type": "Contractual"
      },
      "employeeType": "PROJECT_LEADER",
      "projectName": "Test_1234",
      "reportingEmployees": 1
    },
    {
      "version": 0,
      "modifiedDate": null,
      "createdDate": "2020-04-06",
      "id": 11,
      "firstName": "Project",
      "lastName": "Leader",
      "salary": 3000.11,
      "contractType": {
        "id": 1,
        "type": "Permanent"
      },
      "employeeType": "PROJECT_LEADER",
      "projectName": "Test_1234",
      "reportingEmployees": 100
    }
  ],
  "pageable": {
    "sort": {
      "sorted": true,
      "unsorted": false,
      "empty": false
    },
    "offset": 0,
    "pageSize": 2,
    "pageNumber": 0,
    "paged": true,
    "unpaged": false
  },
  "totalElements": 4,
  "totalPages": 2,
  "last": false,
  "size": 2,
  "number": 0,
  "sort": {
    "sorted": true,
    "unsorted": false,
    "empty": false
  },
  "numberOfElements": 2,
  "first": true,
  "empty": false
}
